<svg width="20" height="20" viewBox="0 0 20 20" fill="none" xmlns="http://www.w3.org/2000/svg">
<path d="M0.833984 16.4168C0.833984 17.9752 2.02565 19.1668 3.58398 19.1668H16.4173C17.9757 19.1668 19.1673 17.9752 19.1673 16.4168V9.0835H0.833984V16.4168ZM16.4173 2.66683H14.584V1.75016C14.584 1.20016 14.2173 0.833496 13.6673 0.833496C13.1173 0.833496 12.7507 1.20016 12.7507 1.75016V2.66683H7.25065V1.75016C7.25065 1.20016 6.88398 0.833496 6.33398 0.833496C5.78398 0.833496 5.41732 1.20016 5.41732 1.75016V2.66683H3.58398C2.02565 2.66683 0.833984 3.8585 0.833984 5.41683V7.25016H19.1673V5.41683C19.1673 3.8585 17.9757 2.66683 16.4173 2.66683Z" fill="#505050"/>
</svg>
