<svg width="30" height="30" viewBox="0 0 30 30" fill="none" xmlns="http://www.w3.org/2000/svg">
<circle cx="15" cy="15" r="15" fill="#EB0A1E"/>
<path d="M2.77104 11.7273H4.38326L6.54235 16.9972H6.62757L8.78667 11.7273H10.3989V19H9.13468V14.0036H9.06721L7.05726 18.9787H6.11266L4.10272 13.9929H4.03525V19H2.77104V11.7273ZM11.8335 11.7273H13.4458L15.6048 16.9972H15.6901L17.8492 11.7273H19.4614V19H18.1972V14.0036H18.1297L16.1198 18.9787H15.1752L13.1652 13.9929H13.0977V19H11.8335V11.7273ZM20.896 19V11.7273H22.2135V15.0689H22.3023L25.1396 11.7273H26.7483L23.9358 14.9908L26.7732 19H25.1894L23.0196 15.8821L22.2135 16.8338V19H20.896Z" fill="white"/>
</svg>
