<svg width="45" height="30" viewBox="0 0 45 30" fill="none" xmlns="http://www.w3.org/2000/svg">
<rect width="45" height="30" rx="5" fill="#EB0A1E"/>
<path d="M17.96 10.624V19H16.28V13.552L14.036 19H12.764L10.508 13.552V19H8.828V10.624H10.736L13.4 16.852L16.064 10.624H17.96ZM28.753 10.624V19H27.073V13.552L24.829 19H23.557L21.301 13.552V19H19.621V10.624H21.529L24.193 16.852L26.857 10.624H28.753ZM35.1419 19L32.0939 15.268V19H30.4139V10.624H32.0939V14.38L35.1419 10.624H37.1699L33.7139 14.776L37.2659 19H35.1419Z" fill="white"/>
</svg>
